sdp/biwi/utils/StatToGatewayMsg.class
sdp/biwi/NodeEnteredServiceGrpc$NodeEnteredServiceBaseDescriptorSupplier.class
sdp/biwi/utils/StatMsg.class
sdp/biwi/TokenPassServiceGrpc$TokenPassServiceMethodDescriptorSupplier.class
sdp/biwi/NodeEnteredServiceGrpc$NodeEnteredServiceFutureStub.class
sdp/biwi/StatsProtocol$NodeIdMessage.class
sdp/biwi/utils/ExitListener.class
sdp/biwi/PeerProtocol$NodeEnteredMessage$1.class
sdp/biwi/StatsProtocol$TokenReceivedMessage.class
sdp/biwi/TokenPassServiceGrpc$TokenPassServiceStub.class
sdp/biwi/utils/Pm10Node.class
sdp/biwi/PeerProtocol$OkGotItOrBuilder.class
sdp/biwi/p2pnet/TokenPassServiceImpl.class
sdp/biwi/TokenPassServiceGrpc$MethodHandlers.class
sdp/biwi/simulator/Buffer.class
sdp/biwi/StatsProtocol$StatMessageOrBuilder.class
sdp/biwi/TokenPassServiceGrpc$TokenPassServiceImplBase.class
sdp/biwi/NodeEnteredServiceGrpc$NodeEnteredServiceMethodDescriptorSupplier.class
sdp/biwi/StatsProtocol$1.class
sdp/biwi/PeerProtocol$OkGotIt$Builder.class
sdp/biwi/AnalystMain$1.class
sdp/biwi/PeerProtocol$NodeEnteredMessageOrBuilder.class
sdp/biwi/utils/NodeInfo.class
sdp/biwi/utils/StatsHistory.class
sdp/biwi/TokenPassServiceGrpc$TokenPassServiceFutureStub.class
sdp/biwi/PeerProtocol$OkGotIt$1.class
sdp/biwi/StatsProtocol$TokenMessage.class
sdp/biwi/StatsProtocol$TokenMessage$Builder.class
sdp/biwi/NodeEnteredServiceGrpc.class
sdp/biwi/NodeEnteredServiceGrpc$NodeEnteredServiceImplBase.class
sdp/biwi/StatsProtocol$StatMessage.class
sdp/biwi/StatsProtocol$TokenReceivedMessageOrBuilder.class
sdp/biwi/StatsProtocol$NodeIdMessage$Builder.class
sdp/biwi/StatsProtocol$StatMessage$Builder.class
sdp/biwi/TokenPassServiceGrpc$TokenPassServiceBlockingStub.class
sdp/biwi/StatsProtocol$StatMessage$1.class
sdp/biwi/GatewayMain.class
sdp/biwi/rest/NodeService.class
sdp/biwi/PeerProtocol$1.class
sdp/biwi/StatsProtocol$TokenMessage$1.class
sdp/biwi/utils/NodeList.class
sdp/biwi/NodeEnteredServiceGrpc$MethodHandlers.class
sdp/biwi/NodeMain.class
sdp/biwi/NodeEnteredServiceGrpc$NodeEnteredServiceBlockingStub.class
sdp/biwi/StatsProtocol$NodeIdMessageOrBuilder.class
sdp/biwi/PeerProtocol.class
sdp/biwi/PeerProtocol$NodeEnteredMessage.class
sdp/biwi/TokenPassServiceGrpc.class
sdp/biwi/simulator/SlidingBuffer.class
sdp/biwi/NodeEnteredServiceGrpc$NodeEnteredServiceStub.class
sdp/biwi/p2pnet/NodeEnteredServiceImpl.class
sdp/biwi/StatsProtocol$TokenReceivedMessage$1.class
sdp/biwi/NodeEnteredServiceGrpc$1.class
sdp/biwi/simulator/PM10Simulator.class
sdp/biwi/simulator/Simulator.class
sdp/biwi/simulator/Measurement.class
sdp/biwi/rest/StatService.class
sdp/biwi/TokenPassServiceGrpc$1.class
sdp/biwi/StatsProtocol$NodeIdMessage$1.class
sdp/biwi/NodeEnteredServiceGrpc$NodeEnteredServiceFileDescriptorSupplier.class
sdp/biwi/StatsProtocol.class
sdp/biwi/utils/DevMean.class
sdp/biwi/StatsProtocol$TokenReceivedMessage$Builder.class
sdp/biwi/AnalystMain.class
sdp/biwi/TokenPassServiceGrpc$TokenPassServiceBaseDescriptorSupplier.class
sdp/biwi/PeerProtocol$NodeEnteredMessage$Builder.class
sdp/biwi/StatsProtocol$TokenMessageOrBuilder.class
sdp/biwi/rest/AnalystService.class
sdp/biwi/TokenPassServiceGrpc$TokenPassServiceFileDescriptorSupplier.class
sdp/biwi/PeerProtocol$OkGotIt.class
